…
Now, try to choose a version of your data that you think will be
appropriate to answer these 2 questions. Use between 4 and 8 functions
that we’ve covered so far (i.e. by filtering, cleaning, tidy’ing,
dropping irrelevant columns, etc.).

<!--------------------------- Start your work below --------------------------->

**Question 1:** Functions use select, arrange, mutate, group by,
summarize

``` r
apt_buildings %>% select("id","no_of_units","no_barrier_free_accessible_units","year_built") %>% arrange(no_of_units)%>%  mutate(free_access_unit_per_total_unit=no_barrier_free_accessible_units/no_of_units) %>% group_by(year_built) %>% summarize(mean_number_of_freeaccess_unit=mean(free_access_unit_per_total_unit))
```

    ## # A tibble: 128 x 2
    ##    year_built mean_number_of_freeaccess_unit
    ##         <dbl>                          <dbl>
    ##  1       1805                         0     
    ##  2       1809                         0     
    ##  3       1838                         0.2   
    ##  4       1880                         0     
    ##  5       1885                         0.0357
    ##  6       1888                         0     
    ##  7       1890                         0     
    ##  8       1891                         0     
    ##  9       1895                         0     
    ## 10       1896                         0     
    ## # ... with 118 more rows
…
