…
<!------------------------- Start your work below ----------------------------->

*Research question 1:* Are newer buildings more likely to have
barrier-free accessibility entry? **Summarizing:** Create a categorical
variable with 3 or more groups from an existing numerical variable. You
can use this new variable in the other tasks!

``` r
apt_buildings %>% select(year_built,barrier_free_accessibilty_entr) %>% mutate(year_built_r_cat=case_when(
      year_built< 1900 ~ "Before 1900",
       year_built> 2000 ~ "After 2000",
      TRUE                   ~ "Between 1900 and 2000"))
```

    ## # A tibble: 3,455 x 3
    ##    year_built barrier_free_accessibilty_entr year_built_r_cat     
    ##         <dbl> <chr>                          <chr>                
    ##  1       1967 YES                            Between 1900 and 2000
    ##  2       1970 NO                             Between 1900 and 2000
    ##  3       1927 NO                             Between 1900 and 2000
    ##  4       1959 YES                            Between 1900 and 2000
    ##  5       1943 NO                             Between 1900 and 2000
    ##  6       1952 NO                             Between 1900 and 2000
    ##  7       1959 YES                            Between 1900 and 2000
    ##  8       1971 NO                             Between 1900 and 2000
    ##  9       1969 YES                            Between 1900 and 2000
    ## 10       1972 YES                            Between 1900 and 2000
    ## # ... with 3,445 more rows
…
    ## # A tibble: 3 x 2
    ##   sprinkler_system     n
    ##   <chr>            <int>
    ## 1 NO                1036
    ## 2 YES               2332
    ## 3 <NA>                87

``` r
apt_buildings %>% select(`non-smoking_building`,sprinkler_system) %>%filter(`non-smoking_building`=="YES",sprinkler_system=="YES")
```

    ## # A tibble: 867 x 2
    ##    `non-smoking_building` sprinkler_system
    ##    <chr>                  <chr>           
    ##  1 YES                    YES             
    ##  2 YES                    YES             
    ##  3 YES                    YES             
    ##  4 YES                    YES             
    ##  5 YES                    YES             
    ##  6 YES                    YES             
    ##  7 YES                    YES             
    ##  8 YES                    YES             
    ##  9 YES                    YES             
    ## 10 YES                    YES             
    ## # ... with 857 more rows

``` r
apt_buildings %>% select(`non-smoking_building`,sprinkler_system) %>%filter(`non-smoking_building`=="NO",sprinkler_system=="NO")
```

    ## # A tibble: 610 x 2
    ##    `non-smoking_building` sprinkler_system
    ##    <chr>                  <chr>           
    ##  1 NO                     NO              
    ##  2 NO                     NO              
    ##  3 NO                     NO              
    ##  4 NO                     NO              
    ##  5 NO                     NO              
    ##  6 NO                     NO              
    ##  7 NO                     NO              
    ##  8 NO                     NO              
    ##  9 NO                     NO              
    ## 10 NO                     NO              
    ## # ... with 600 more rows
…
